Introduction
…
In what follows, we describe the main characteristics of the SITS package. The first part  describes the basic data structures used in SITS and the tools used for visualisation and data exploration. Then we show how to do data acquision from external sources, with an emphasis on the WTSS (“web time series service”). The next sections describe filtering and clustering techniques. We then discuss machine learning techiques for SITS data and how to apply them to image time series. Finally, we present validation methods.

Data Handling and Visualisation Basics in SITS

The basic data unit in the sits package is the SITS tibble, which is a way of organizing a set of time series data with associated spatial information. In R, a “tibble” differs from the traditional data frame, insofar as a tibble can contain lists embedded as column arguments. Tibbles are part of the “tidyverse”, a collection of R package designed to work together in data manipulation. The “tidyverse” includes packages such as “ggplot2”, “dplyr” and “purrr” [@Wickham2017]. The “SITS” package makes extensive use of the “tidyverse”.

For a better explanation of how the “SITS tibble” works, we will read a data set containing  2,115 labelled samples of land cover in Mato Grosso state of Brazil. This state has 903,357 km\textsuperscript{2} of extension, being the third largest state of Brazil. It includes three of Brazil's biomes: Amazonia, Cerrado and Pantanal. It is the most important agricultural frontier of Brazil and is Brazil's largest producer of soybeans, corn and cotton.

The samples contain time series extracted from the MODIS MOD13Q1 product from NASA from 2001 to 2016, provided every 16 days at 250-meter spatial resolution in the Sinusoidal projection. Based on ground surveys and high resolution imagery, we selected 2,115 samples of nine classes: forest, cerrado, pasture, soybean-fallow, fallow-cotton,  soybean-cotton, soybean-corn, (8) soybean-millet, soybean-sunflower. Crop and pasture ground data was collected by researchers Alexandre Coutinho, Julio Esquerdo and Joao Antunes from the Brazilian Agricultural Research Agency (EMBRAPA) through farmer interviews in October 2009 and in October 2013. Samples for cerrado and forest classes were provided by Rodrigo Bergotti from INPE. Ground samples for soybean-fallow class were provided by Damien Arvor[@Arvor2012].

# retrieve a set of samples from an RDS file
samples.tb <- readRDS(system.file("extdata/time_series/embrapa_mt.rds", package = "sits"))
samples.tb

## # A tibble: 2,115 x 7
##    longitude latitude start_date   end_date   label    coverage
##        <dbl>    <dbl>     <date>     <date>   <chr>       <chr>
##  1  -55.1852 -10.8378 2013-09-14 2014-08-29 Pasture mod13q1_512
##  2  -57.7940  -9.7573 2006-09-14 2007-08-29 Pasture mod13q1_512
##  3  -51.9412 -13.4198 2014-09-14 2015-08-29 Pasture mod13q1_512
##  4  -55.9643 -10.0621 2005-09-14 2006-08-29 Pasture mod13q1_512
##  5  -54.5540 -10.3749 2013-09-14 2014-08-29 Pasture mod13q1_512
##  6  -52.4572 -10.9512 2013-09-14 2014-08-29 Pasture mod13q1_512
##  7  -52.1443 -13.9981 2013-09-14 2014-08-29 Pasture mod13q1_512
##  8  -57.6907 -13.3382 2015-09-14 2016-08-28 Pasture mod13q1_512
##  9  -54.7034 -16.4265 2015-09-14 2016-08-28 Pasture mod13q1_512
## 10  -53.6543 -15.7155 2014-09-14 2015-08-29 Pasture mod13q1_512
## # ... with 2,105 more rows, and 1 more variables: time_series <list>

The “SITS tibble” contains data and metadata. The first six columns contain the metadata: spatial and temporal location, label assigned to the sample, and coverage from where the data has been extracted. The spatial location is given in longitude and latitude coordinates for the “WGS84” ellipsoid. For example, the first sample has been labelled “Pasture”, at location (-55.1852, -10.8387), and is considered valid for the period (2013-09-14, 2014-08-29). Informing the dates where the label is valid is crucial for correct classification. In this case, the researchers involved in labelling the samples chose to use the agricultural calendar in Brazil, where the spring crop is planted in the months of September and October, and the autmun crop is planted in the months of February and March. For other applications and other countries, the relevant dates will most likely be different from those used in the example.

The SITS tibble also contains the time series data for each spatiotemporal location. The timeseries data is also organized as a tibble, with a column with the dates and the other columns with the values for each spectral band.

#print the first time series
samples.tb[1,]$time_series

## [[1]]
## # A tibble: 23 x 7
##         Index   ndvi    evi    nir    mir   blue    red
##  *     <date>  <dbl>  <dbl>  <dbl>  <dbl>  <dbl>  <dbl>
##  1 2013-09-14 0.4245 0.2800 0.2879 0.2439 0.0605 0.1163
##  2 2013-09-30 0.4673 0.2642 0.2570 0.1672 0.0357 0.0933
##  3 2013-10-16 0.5039 0.2993 0.2659 0.2019 0.0405 0.0877
##  4 2013-11-01 0.6489 0.4071 0.2762 0.1026 0.0266 0.0588
##  5 2013-11-17 0.7956 0.6692 0.4552 0.0875 0.0271 0.0518
##  6 2013-12-03 0.7248 0.5400 0.3661 0.0799 0.0516 0.0584
##  7 2013-12-19 0.7971 0.5574 0.3490 0.0478 0.0171 0.0394
##  8 2014-01-01 0.8049 0.7228 0.5255 0.1030 0.0327 0.0568
##  9 2014-01-17 0.7364 0.6867 0.5165 0.1449 0.0629 0.0784
## 10 2014-02-02 0.7870 0.7342 0.5320 0.1323 0.0452 0.0634
## # ... with 13 more rows
…
